// Jest Snapshot v1, https://goo.gl/fbAQLP

exports[`organization/components/profile-cover #render renders correctly 1`] = `
.c1 {
  height: 10rem;
  background-repeat: no-repeat;
  background-size: cover;
  background-image: url(https://d3vlf99qeg6bpx.cloudfront.net/content/uploads/2016/03/Emirates.jpg);
}

.c8 {
  display: -webkit-box;
  display: -webkit-flex;
  display: -ms-flexbox;
  display: flex;
  -webkit-align-items: center;
  -webkit-box-align: center;
  -ms-flex-align: center;
  align-items: center;
  -webkit-box-pack: center;
  -webkit-justify-content: center;
  -ms-flex-pack: center;
  justify-content: center;
  height: 5rem;
  width: 11rem;
  padding-left: 1rem;
  padding-right: 1rem;
  font-size: 1rem;
  -webkit-text-decoration: none;
  text-decoration: none;
  color: #000000;
  font-weight: bold;
  cursor: pointer;
  border-left: 1px solid grey;
}

.c2 {
  padding-left: 6rem;
  padding-top: 7rem;
  color: white;
  font-weight: bold;
}

.c0 {
  font-family: 'Titillium Web',sans-serif;
  display: -webkit-box;
  display: -webkit-flex;
  display: -ms-flexbox;
  display: flex;
  -webkit-flex-direction: column;
  -ms-flex-direction: column;
  flex-direction: column;
}

.c4 {
  border-radius: 50%;
  margin-bottom: 3rem;
  margin-left: 1.5rem;
  margin-right: 1.5rem;
  height: 5rem;
  width: 5rem;
}

.c5 {
  width: 8rem;
  font-size: 0.8rem;
  display: -webkit-box;
  display: -webkit-flex;
  display: -ms-flexbox;
  display: flex;
  -webkit-flex-direction: column;
  -ms-flex-direction: column;
  flex-direction: column;
}

.c5 > :last-child {
  margin-top: 0.5rem;
}

.c3 {
  display: -webkit-box;
  display: -webkit-flex;
  display: -ms-flexbox;
  display: flex;
  -webkit-align-items: center;
  -webkit-box-align: center;
  -ms-flex-align: center;
  align-items: center;
  background-color: white;
  height: 5rem;
}

.c6 {
  display: -webkit-box;
  display: -webkit-flex;
  display: -ms-flexbox;
  display: flex;
  -webkit-flex-direction: row;
  -ms-flex-direction: row;
  flex-direction: row;
  -webkit-align-items: center;
  -webkit-box-align: center;
  -ms-flex-align: center;
  align-items: center;
}

.c7 {
  width: 1rem;
  margin-right: 0.5rem;
}

@media (max-width:30rem) {
  .c8 {
    width: 4rem;
  }
}

<div
  className="c0"
>
  <div
    className="c1"
  >
    <div
      className="c2"
    >
       
      Arsenal Supporter Club of Hong Kong
       
    </div>
  </div>
  <div
    className="c3"
  >
    <img
      alt="test"
      className="c4"
      src="https://risibank.fr/cache/stickers/d120/12031-full.png"
    />
    <div
      className="c5"
    >
      <span
        className="c6"
      >
        <img
          alt="calendar"
          className="c7"
          src="/assets/calendar.svg"
        />
         
        <time
          dateTime={"2017-05-15T04:34:01.000Z"}
        >
          15, May 2017
        </time>
         
      </span>
      <span
        className="c6"
      >
        <img
          alt="location"
          className="c7"
          src="/assets/location.svg"
        />
         
        Hong Kong
         
      </span>
    </div>
    <a
      aria-current={false}
      className="c8"
      href="/Arsenal Supporter Club of Hong Kong#about"
      onClick={[Function]}
      style={undefined}
    >
       About 
    </a>
    <a
      aria-current={false}
      className="c8"
      href="/Arsenal Supporter Club of Hong Kong#events"
      onClick={[Function]}
      style={undefined}
    >
       Events 
    </a>
    <a
      aria-current={false}
      className="c8"
      href="/Arsenal Supporter Club of Hong Kong#guestToEvent"
      onClick={[Function]}
      style={undefined}
    >
       Add Guest to Event 
    </a>
  </div>
</div>
`;
