// Jest Snapshot v1, https://goo.gl/fbAQLP

exports[`AddUserToEvent #mapDispatchToProps creates the action props 1`] = `
Object {
  "actions": Object {
    "addUserToEvent": [Function],
  },
}
`;

exports[`AddUserToEvent #render renders correctly 1`] = `
Array [
  .c0 {
  font-size: 2.5rem;
  font-weight: 600;
  text-align: left;
  color: #000000;
}

<h1
    className="c0"
    id="guestToEvent"
  >
     Add Guest to Events 
  </h1>,
  .c0 {
  display: -webkit-box;
  display: -webkit-flex;
  display: -ms-flexbox;
  display: flex;
  -webkit-flex-direction: row;
  -ms-flex-direction: row;
  flex-direction: row;
  -webkit-align-items: center;
  -webkit-box-align: center;
  -ms-flex-align: center;
  align-items: center;
  -webkit-box-pack: center;
  -webkit-justify-content: center;
  -ms-flex-pack: center;
  justify-content: center;
  margin-top: 2rem;
}

.c0 > * {
  margin-left: 2rem;
  width: 8rem;
}

<div
    className="c0"
  >
    <div
      className="css-10nd86i"
      id="event"
      onKeyDown={[Function]}
    >
      <div
        className="css-1aya2g8"
        onMouseDown={[Function]}
        onTouchEnd={[Function]}
      >
        <div
          className="css-1rtrksz"
        >
          <div
            className="css-va7pk8"
          />
          <div
            className="css-rsyb7x"
          >
            <div
              className=""
              style={
                Object {
                  "display": "inline-block",
                }
              }
            >
              <input
                aria-autocomplete="list"
                aria-label={undefined}
                aria-labelledby={undefined}
                autoCapitalize="none"
                autoComplete="off"
                autoCorrect="off"
                className={undefined}
                disabled={false}
                id="react-select-2-input"
                onBlur={[Function]}
                onChange={[Function]}
                onFocus={[Function]}
                spellCheck="false"
                style={
                  Object {
                    "background": 0,
                    "border": 0,
                    "boxSizing": "content-box",
                    "color": "inherit",
                    "fontSize": "inherit",
                    "opacity": 1,
                    "outline": 0,
                    "padding": 0,
                    "width": "1px",
                  }
                }
                tabIndex="0"
                type="text"
                value=""
              />
              <div
                style={
                  Object {
                    "height": 0,
                    "left": 0,
                    "overflow": "scroll",
                    "position": "absolute",
                    "top": 0,
                    "visibility": "hidden",
                    "whiteSpace": "pre",
                  }
                }
              >
                
              </div>
            </div>
          </div>
        </div>
        <div
          className="css-1wy0on6"
        >
          <span
            className="css-d8oujb"
          />
          <div
            aria-hidden="true"
            className="css-1ep9fjw"
            onMouseDown={[Function]}
            onTouchEnd={[Function]}
          >
            <svg
              aria-hidden="true"
              className="css-19bqh2r"
              focusable="false"
              height={20}
              viewBox="0 0 20 20"
              width={20}
            >
              <path
                d="M4.516 7.548c0.436-0.446 1.043-0.481 1.576 0l3.908 3.747 3.908-3.747c0.533-0.481 1.141-0.446 1.574 0 0.436 0.445 0.408 1.197 0 1.615-0.406 0.418-4.695 4.502-4.695 4.502-0.217 0.223-0.502 0.335-0.787 0.335s-0.57-0.112-0.789-0.335c0 0-4.287-4.084-4.695-4.502s-0.436-1.17 0-1.615z"
              />
            </svg>
          </div>
        </div>
      </div>
    </div>
    <div
      className="css-10nd86i"
      id="user"
      onKeyDown={[Function]}
    >
      <div
        className="css-1aya2g8"
        onMouseDown={[Function]}
        onTouchEnd={[Function]}
      >
        <div
          className="css-1rtrksz"
        >
          <div
            className="css-va7pk8"
          />
          <div
            className="css-rsyb7x"
          >
            <div
              className=""
              style={
                Object {
                  "display": "inline-block",
                }
              }
            >
              <input
                aria-autocomplete="list"
                aria-label={undefined}
                aria-labelledby={undefined}
                autoCapitalize="none"
                autoComplete="off"
                autoCorrect="off"
                className={undefined}
                disabled={false}
                id="react-select-3-input"
                onBlur={[Function]}
                onChange={[Function]}
                onFocus={[Function]}
                spellCheck="false"
                style={
                  Object {
                    "background": 0,
                    "border": 0,
                    "boxSizing": "content-box",
                    "color": "inherit",
                    "fontSize": "inherit",
                    "opacity": 1,
                    "outline": 0,
                    "padding": 0,
                    "width": "1px",
                  }
                }
                tabIndex="0"
                type="text"
                value=""
              />
              <div
                style={
                  Object {
                    "height": 0,
                    "left": 0,
                    "overflow": "scroll",
                    "position": "absolute",
                    "top": 0,
                    "visibility": "hidden",
                    "whiteSpace": "pre",
                  }
                }
              >
                
              </div>
            </div>
          </div>
        </div>
        <div
          className="css-1wy0on6"
        >
          <span
            className="css-d8oujb"
          />
          <div
            aria-hidden="true"
            className="css-1ep9fjw"
            onMouseDown={[Function]}
            onTouchEnd={[Function]}
          >
            <svg
              aria-hidden="true"
              className="css-19bqh2r"
              focusable="false"
              height={20}
              viewBox="0 0 20 20"
              width={20}
            >
              <path
                d="M4.516 7.548c0.436-0.446 1.043-0.481 1.576 0l3.908 3.747 3.908-3.747c0.533-0.481 1.141-0.446 1.574 0 0.436 0.445 0.408 1.197 0 1.615-0.406 0.418-4.695 4.502-4.695 4.502-0.217 0.223-0.502 0.335-0.787 0.335s-0.57-0.112-0.789-0.335c0 0-4.287-4.084-4.695-4.502s-0.436-1.17 0-1.615z"
              />
            </svg>
          </div>
        </div>
      </div>
    </div>
    <button
      className="btn disabled waves-effect waves-light"
      data-tooltip={undefined}
      disabled={true}
      id="button-test"
      onClick={[Function]}
    >
      Add Guest To Events
    </button>
  </div>,
]
`;
